^E:\CPP\SNAKE\SNAKE\SNAKE\MAIN.CPP|E:\CPP\SNAKE\SNAKE\SNAKE\SNAKE.CPP
E:\CPP\SNAKE\SNAKE\SNAKE\RELEASE\VC141.PDB
E:\CPP\SNAKE\SNAKE\SNAKE\RELEASE\SNAKE.OBJ
E:\CPP\SNAKE\SNAKE\SNAKE\RELEASE\MAIN.OBJ
^E:\CPP\SNAKE\SNAKE\SNAKE\GAMEMENAGER.CPP|E:\CPP\SNAKE\SNAKE\SNAKE\SNAKE.CPP
E:\CPP\SNAKE\SNAKE\SNAKE\RELEASE\VC141.PDB
E:\CPP\SNAKE\SNAKE\SNAKE\RELEASE\SNAKE.OBJ
E:\CPP\SNAKE\SNAKE\SNAKE\RELEASE\GAMEMENAGER.OBJ
^E:\CPP\SNAKE\SNAKE\SNAKE\BOARD.CPP|E:\CPP\SNAKE\SNAKE\SNAKE\GAMEMENAGER.CPP
E:\CPP\SNAKE\SNAKE\SNAKE\RELEASE\VC141.PDB
E:\CPP\SNAKE\SNAKE\SNAKE\RELEASE\GAMEMENAGER.OBJ
E:\CPP\SNAKE\SNAKE\SNAKE\RELEASE\BOARD.OBJ
^E:\CPP\SNAKE\SNAKE\SNAKE\GAMEMENAGER.CPP|E:\CPP\SNAKE\SNAKE\SNAKE\MAIN.CPP|E:\CPP\SNAKE\SNAKE\SNAKE\SNAKE.CPP
E:\CPP\SNAKE\SNAKE\SNAKE\RELEASE\VC141.PDB
E:\CPP\SNAKE\SNAKE\SNAKE\RELEASE\SNAKE.OBJ
E:\CPP\SNAKE\SNAKE\SNAKE\RELEASE\MAIN.OBJ
E:\CPP\SNAKE\SNAKE\SNAKE\RELEASE\GAMEMENAGER.OBJ
^E:\CPP\SNAKE\SNAKE\SNAKE\BOARD.CPP|E:\CPP\SNAKE\SNAKE\SNAKE\GAMEMENAGER.CPP|E:\CPP\SNAKE\SNAKE\SNAKE\INPUTMENAGER.CPP|E:\CPP\SNAKE\SNAKE\SNAKE\MAIN.CPP|E:\CPP\SNAKE\SNAKE\SNAKE\SNAKE.CPP|E:\CPP\SNAKE\SNAKE\SNAKE\WINDOWHANDLER.CPP
E:\CPP\SNAKE\SNAKE\SNAKE\RELEASE\VC141.PDB
E:\CPP\SNAKE\SNAKE\SNAKE\RELEASE\WINDOWHANDLER.OBJ
E:\CPP\SNAKE\SNAKE\SNAKE\RELEASE\SNAKE.OBJ
E:\CPP\SNAKE\SNAKE\SNAKE\RELEASE\MAIN.OBJ
E:\CPP\SNAKE\SNAKE\SNAKE\RELEASE\INPUTMENAGER.OBJ
E:\CPP\SNAKE\SNAKE\SNAKE\RELEASE\GAMEMENAGER.OBJ
E:\CPP\SNAKE\SNAKE\SNAKE\RELEASE\BOARD.OBJ
^E:\CPP\SNAKE\SNAKE\SNAKE\BOARD.CPP
E:\CPP\SNAKE\SNAKE\SNAKE\RELEASE\VC141.PDB
^E:\CPP\SNAKE\SNAKE\SNAKE\GAMEMENAGER.CPP
E:\CPP\SNAKE\SNAKE\SNAKE\RELEASE\VC141.PDB
^E:\CPP\SNAKE\SNAKE\SNAKE\INPUTMENAGER.CPP
E:\CPP\SNAKE\SNAKE\SNAKE\RELEASE\VC141.PDB
^E:\CPP\SNAKE\SNAKE\SNAKE\SNAKE.CPP
E:\CPP\SNAKE\SNAKE\SNAKE\RELEASE\VC141.PDB
^E:\CPP\SNAKE\SNAKE\SNAKE\MAIN.CPP|E:\CPP\SNAKE\SNAKE\SNAKE\WINDOWHANDLER.CPP
E:\CPP\SNAKE\SNAKE\SNAKE\RELEASE\VC141.PDB
E:\CPP\SNAKE\SNAKE\SNAKE\RELEASE\WINDOWHANDLER.OBJ
E:\CPP\SNAKE\SNAKE\SNAKE\RELEASE\MAIN.OBJ
^E:\CPP\SNAKE\SNAKE\SNAKE\WINDOWHANDLER.CPP
E:\CPP\SNAKE\SNAKE\SNAKE\RELEASE\VC141.PDB
E:\CPP\SNAKE\SNAKE\SNAKE\RELEASE\WINDOWHANDLER.OBJ
^E:\CPP\SNAKE\SNAKE\SNAKE\MAIN.CPP
E:\CPP\SNAKE\SNAKE\SNAKE\RELEASE\VC141.PDB
E:\CPP\SNAKE\SNAKE\SNAKE\RELEASE\MAIN.OBJ
